{
  "images" : [
    {
      "idiom" : "universal",
      "scale" : "1x",
      "filename" : "a_img_invoice.png"
    },
    {
      "idiom" : "universal",
      "scale" : "2x",
      "filename" : "a_img_invoice@2x.png"
    },
    {
      "idiom" : "universal",
      "scale" : "3x",
      "filename" : "a_img_invoice@3x.png"
    }
  ],
  "info" : {
    "version" : 1,
    "author" : "xcode"
  }
}